{
    "points": [
        {
            "myName": "marker0",
            "localizationX": 12.97945785522461,
            "localizationY": 77.69589233398438,
            "rank": 5,
            "collected": false
        },
        {
            "myName": "marker1000",
            "localizationX": 12.97978687286377,
            "localizationY": 77.69623565673828,
            "rank": 6,
            "collected": false
        },
        {
            "myName": "marker2000",
            "localizationX": 12.979816436767579,
            "localizationY": 77.69590759277344,
            "rank": 7,
            "collected": true
        },
        {
            "myName": "marker3000",
            "localizationX": 12.980039596557618,
            "localizationY": 77.69583892822266,
            "rank": 8,
            "collected": false
        },
        {
            "myName": "marker4000",
            "localizationX": 12.979719161987305,
            "localizationY": 77.69535064697266,
            "rank": 10,
            "collected": false
        }
    ]
}